Comparisons between Saccharomyces, Transcript Leaders
…
Plot UTR length distributions for different species

Plot uAUG distributions for different species - NOT DONE

Summary

This summarizes transcript leader/5UTR lengths in different (annotations of) Saccharomyces species, from yeast genome (YG) and otherwise from Spealman et al 2019 (SM).

We need to add uAUG counts.

Load Packages

Load data

## # A tibble: 27,412 x 20
##    Gene  aATG.context Length d1.context d1.posTSS d1.posATG d1.frame
##    <chr> <chr>         <int> <chr>          <int>     <int>    <int>
##  1 YAL0 agcccaggaaa      1 CGATCTATC        23        22        1
##  2 YAL0 CACCCATTTAT    519 TCATGGAAC       529        10        1
##  3 YAL0 TATACACACAC     23 ACATTGAAG       105        82        1
##  4 YAL0 aaaaataaaat      1 CATCTTCCA        86        85        1
##  5 YAL0 GTGCGTATAAG     35 TTAGCCTCT        53        18        0
##  6 YAL0 AAAGAGGAGGT     24 ACTTCATCC        67        43        1
##  7 YAL0 acgcctgcttc      1 ATGCTGCCC        13        12        0
##  8 YAL0 AGACAACTGAC     24 GCCGTGGAG       130       106        1
##  9 YAL0 CGTATACCAAG     35 CCCCTTCGA       769       734        2
## 10 YAL0 CGGTCGTGGCA     24 GACACAGAG       183       159        0
## #  with 27,402 more rows, and 13 more variables: d2.context <chr>,
## #   d2.posTSS <int>, d2.posATG <int>, d2.frame <int>, u1.context <chr>,
## #   u1.posTSS <int>, u1.posATG <int>, u1.frame <int>, u2.context <chr>,
## #   u2.posTSS <int>, u2.posATG <int>, u2.frame <int>, Organism <fct>
…
