Comparisons between fungi, information content of ATG context
…
infon_perbase

## # A tibble: 144 x 6
##        i   Pos   All HiTrans CytoRibo Organism
##    <dbl> <dbl> <dbl>   <dbl>    <dbl> <fct>   
##  1     1   -12 0.085   0.274    0.318 Sc      
##  2     2   -11 0.092   0.233    0.198 Sc      
##  3     3   -10 0.089   0.257    0.258 Sc      
##  4     4    -9 0.072   0.207    0.145 Sc      
##  5     5    -8 0.082   0.193    0.226 Sc      
##  6     6    -7 0.085   0.290    0.284 Sc      
##  7     7    -6 0.065   0.088    0.069 Sc      
##  8     8    -5 0.063   0.115    0.087 Sc      
##  9     9    -4 0.115   0.393    0.478 Sc      
## 10    10    -3 0.358   1.16     1.24  Sc      
## # ... with 134 more rows

infon_perbase_g <- 
    infon_perbase %>%
    gather(key = "Genes",value="Infon",-i,-Pos,-Organism) %>%
    mutate(Genes=factor(Genes, levels=c("All","HiTrans","CytoRibo")) )

infon_perbase_g

## # A tibble: 432 x 5
##        i   Pos Organism Genes Infon
##    <dbl> <dbl> <fct>    <fct> <dbl>
##  1     1   -12 Sc       All   0.085
##  2     2   -11 Sc       All   0.092
##  3     3   -10 Sc       All   0.089
##  4     4    -9 Sc       All   0.072
##  5     5    -8 Sc       All   0.082
##  6     6    -7 Sc       All   0.085
##  7     7    -6 Sc       All   0.065
##  8     8    -5 Sc       All   0.063
##  9     9    -4 Sc       All   0.115
## 10    10    -3 Sc       All   0.358
## # ... with 422 more rows
…
Compare dATG vs aATG score, dATG frame, and mito localization

For enoughRNA in each organism

Load data

## # A tibble: 96 x 6
##    enoughR d1vsaw0p1 d1.framefac Pred_preseq     n Organism
##    <chr>   <chr>     <chr>       <chr>       <dbl> <fct>   
##  1 Yes     d1lo      In          No            480 Sc      
##  2 Yes     d1lo      In          Yes            84 Sc      
##  3 Yes     d1lo      Out         No           1990 Sc      
##  4 Yes     d1lo      Out         Yes           170 Sc      
##  5 Yes     d1hi      In          No             32 Sc      
##  6 Yes     d1hi      In          Yes             7 Sc      
##  7 Yes     d1hi      Out         No             84 Sc      
##  8 Yes     d1hi      Out         Yes             7 Sc      
##  9 No      d1lo      In          No            678 Sc      
## 10 No      d1lo      In          Yes            60 Sc      
## # ... with 86 more rows
…
