Start codon context for Histoplasma capsulatum G217B
…
Summary

This presents the analysis of Histoplasma capsulatum start codon usage and context. This uses the H H. capsulatum G217B translation estimates from Gilmore, Voorhies, Gebhart and Sil 2017.

We decided that the 5UTR annotations are so patchy that we dont want to pursue this data. Only about half the highly-translated genes have 5UTRs in the annotation, and there are many contigs and plenty of missing genes including 6 ribosomal proteins.

Load Packages

Here we go

Expression: RNA abundance and ribosome-protected-fragments

Load expression data

## # A tibble: 7,186 x 7
##    Gene                                RNA_Y RNA_H RPF_Y RPF_H   RNA   RPF
##    <chr>                               <dbl> <dbl> <dbl> <dbl> <dbl> <dbl>
##  1 HISTO_ZL.Contig1158.Fgenesh_histo.  12.6 12.2   13.4 12.1   12.4  12.7
##  2 HISTO_DM.Contig93.eannot.1682.fina  10.3 12.0   11.9 13.2   11.2  12.6
##  3 HISTO_DM.Contig93.eannot.1655.fina  11.5 11.2   12.7 12.1   11.3  12.4
##  4 HISTO_KK.Contig134.Fgenesh_histo.1  11.1 12.8   11.2 13.4   12.0  12.3
##  5 HISTO_JG.Contig206.eannot.1462.fin  10.1 11.3   11.6 12.9   10.7  12.2
##  6 HISTO_AL.Contig317.eannot.1560.fin  14.0  9.68  14.4 10.0   11.9  12.2
##  7 HISTO_DM.Contig940.fgenesh_plus.23  10.0 11.5   11.3 12.9   10.7  12.1
##  8 HISTO_ZL.Contig1117.eannot.1110.fi  15.1  7.39  15.8  8.25  11.2  12.0
##  9 <NA>                                 14.0 12.9   12.0 11.9   13.4  12.0
## 10 HISTO_ZU.Contig65.eannot.1990.fina  11.3 11.3   12.1 11.3   11.3  11.7
## # ... with 7,176 more rows

ATG Context

Load context data

## # A tibble: 10,684 x 19
##    Gene  aATG.context aATG.pos d1.context d1.posTSS d1.posATG d1.frame
##    <chr> <chr>           <dbl> <chr>          <dbl>     <dbl>    <dbl>
##  1 HIST TGATCTTCATC        1 GGACATTGA        51        50        2
##  2 HIST GGTTAGTCGGC        1 TTGACTCCC       104       103        1
##  3 HIST TCCTTGGATTC      318 CTACTTAAA       359        41        2
##  4 HIST GATATATCAAG        1 GCTGCGACA        18        17        2
##  5 HIST AAACTGATCAT        1 TTTTCTGTT        22        21        0
##  6 HIST CAGTGTTACAA        1 AGACATTAT       163       162        0
##  7 HIST AAGCGGTGGAG        1 TGGTTTAAT        16        15        0
##  8 HIST AGAGAGTAGAT        1 CGGCGGCGC        65        64        1
##  9 HIST CCGGATGATGG        1 CCGGATACC        49        48        0
## 10 HIST GGAGCTTGCCC      557 GCAGGAAAA       572        15        0
## # ... with 10,674 more rows, and 12 more variables: d2.context <chr>,
## #   d2.posTSS <dbl>, d2.posATG <dbl>, d2.frame <dbl>, u1.context <chr>,
## #   u1.posTSS <dbl>, u1.posATG <dbl>, u1.frame <dbl>, u2.context <chr>,
## #   u2.posTSS <dbl>, u2.posATG <dbl>, u2.frame <dbl>
…
Information content in bits of highly-translated consensus (excluding 6 bits from ATG), narrow is 0.78, of wide is 7.72.

Calculate scores of aATG, dATG, uATG against Kozak consensus

We calculate scores using Biostrings::PWMscoreStartingAt.

The best description I could find of this method is: https://support.bioconductor.org/p/61520/

It is just the sum of the matrix product of the PWM with the sequence.

Write scores to file scores_kozak_Hc.txt.

## # A tibble: 10,684 x 6
##    Gene               aATG.scorekn d1.scorekn u1.scorekn   d1vsan   u1vsan
##    <chr>                     <dbl>      <dbl>      <dbl>    <dbl>    <dbl>
##  1 HISTO_AAD.Contig1        0.865      0.872     NA      0.00696  NA     
##  2 HISTO_AAD.Contig1        0.897      0.905     NA      0.00731  NA     
##  3 HISTO_AAD.Contig1        0.821      0.877      0.797  0.0557   -0.0242
##  4 HISTO_AAD.Contig1        0.924      0.912     NA     -0.0117   NA     
##  5 HISTO_AAE.Contig1        0.987      0.838     NA     -0.149    NA     
##  6 HISTO_AAE.Contig1        0.994      0.862     NA     -0.132    NA     
##  7 HISTO_AAG.Contig6        0.884      0.797     NA     -0.0869   NA     
##  8 HISTO_AAG.Contig6        0.926      0.887     NA     -0.0391   NA     
##  9 HISTO_AAG.Contig6        0.795      0.987     NA      0.191    NA     
## 10 HISTO_AAG.Contig6        0.875      0.936      0.823  0.0613   -0.0518
## # ... with 10,674 more rows
…
Red: high dATG vs aATG Kozak score. Blue: highly translated.

(Purple: both. None of the red genes are highly translated.)

Small negative correlation between dATG and aATG score

R = -0.003

Genes with unusual dATG vs aATG narrow score

Those genes are in this list:

## # A tibble: 256 x 3
##    Gene                                          aATG.scorekn d1.scorekn
##    <chr>                                                <dbl>      <dbl>
##  1 HISTO_GI.Contig363.eannot.1210.final_new             0.755      1    
##  2 HISTO_ZZ.Contig127a.eannot.1329.final_new            0.745      0.981
##  3 HISTO_ZZ.Contig127b-snap.107.final_new               0.769      1    
##  4 HISTO_ZY.Contig518.eannot.1158.final_new             0.769      1    
##  5 HISTO_DF.Contig537.Fgenesh_histo.18.final_new        0.769      0.994
##  6 HISTO_DF.Contig537.Fgenesh_histo.27.final_new        0.784      1    
##  7 HISTO_JG.Contig206.eannot.1530.final_new             0.789      1    
##  8 HISTO_DU.Contig190.eannot.1260.final_new             0.742      0.950
##  9 HISTO_ZE.Contig149.eannot.1280.final_new             0.731      0.936
## 10 HISTO_HS.Contig68-snap.41.final_new                  0.776      0.981
## # ... with 246 more rows
…
dATG in frame with ATG

Files with high difference in narrow score, filtered for reasonable amounts of RNA, in frame. Saved to dvsaATG_highdiffn_inframe_Hc.txt.

## # A tibble: 56 x 3
##    Gene                                     aATG.scorekn d1.scorekn
##    <chr>                                           <dbl>      <dbl>
##  1 HISTO_ZY.Contig518.eannot.1158.final_new        0.769      1    
##  2 HISTO_JG.Contig206.eannot.1530.final_new        0.789      1    
##  3 HISTO_DU.Contig190.eannot.1260.final_new        0.742      0.950
##  4 HISTO_DF.Contig537.eannot.1403.final_new        0.797      0.994
##  5 HISTO_EA.Contig33.eannot.1524.final_new         0.804      0.994
##  6 HISTO_BP.Contig459.eannot.1499.final_new        0.789      0.979
##  7 HISTO_BP.Contig457.eannot.1663.final_new        0.793      0.979
##  8 HISTO_GY.Contig460.eannot.1766.final_new        0.741      0.926
##  9 HISTO_ZU.Contig65.eannot.2107.final_new         0.802      0.987
## 10 HISTO_GY.Contig460-snap.130.final_new           0.798      0.979
## # ... with 46 more rows

dATG out of frame with ATG

Files with high difference in narrow score, filtered for reasonable amounts of RNA, out of frame. Saved to dvsaATG_highdiffn_outframe_Hc.txt.

## # A tibble: 34 x 3
##    Gene                                            aATG.scorekn d1.scorekn
##    <chr>                                                  <dbl>      <dbl>
##  1 HISTO_GX.Contig297.eannot.1457.final_new               0.793      0.975
##  2 HISTO_ZL.Contig1131-snap.26.final_new                  0.819      1    
##  3 HISTO_BP.Contig457.eannot.1757.final_new               0.797      0.975
##  4 HISTO_DA.Contig93.eannot.1937.final_new                0.809      0.987
##  5 HISTO_DY.Contig31.Fgenesh_Neurospora.84.final_        0.804      0.981
##  6 HISTO_FE.Contig19.Fgenesh_histo.31.final_new           0.742      0.912
##  7 HISTO_ZT.Contig1128f.Fgenesh_histo.7.final_new         0.742      0.909
##  8 HISTO_LG.Contig392-snap.140.final_new                  0.766      0.929
##  9 HISTO_ZL.Contig1131-snap.36.final_new                  0.842      1    
## 10 HISTO_JG.Contig206.Fgenesh_histo.113.final_new         0.823      0.975
## # ... with 24 more rows
…
Genes with unusual dATG vs aATG narrow score AND predicted mito loc

Those genes are in this list:

## # A tibble: 24 x 6
##    Gene                   aATG.scorekn d1.scorekn d1.frame d1.posATG   RPF
##    <chr>                         <dbl>      <dbl>    <dbl>     <dbl> <dbl>
##  1 HISTO_DU.Contig190.ea        0.742      0.950        0       261  7.39
##  2 HISTO_BP.Contig457.ea        0.793      0.979        0       141  7.41
##  3 HISTO_GY.Contig460.ea        0.741      0.926        0        27  6.24
##  4 HISTO_DM.Contig933.ea        0.805      0.981        0       132  8.64
##  5 HISTO_DU.Contig204-sn        0.807      0.975        0       102  7.40
##  6 HISTO_JG.Contig206.ea        0.789      0.950        0         9  6.41
##  7 HISTO_ZL.Contig1131-s        0.842      1            2        53  2.54
##  8 HISTO_ZE.Contig149-sn        0.800      0.958        0       102  3.95
##  9 HISTO_DM.Contig933.ea        0.826      0.981        0       102  6.10
## 10 HISTO_LG.Contig392.ea        0.820      0.975        0        60  7.71
## # ... with 14 more rows

less strong biases, but in frame dATG

## # A tibble: 174 x 5
##    Gene                            aATG.scorekn d1.scorekn d1.posATG   RPF
##    <chr>                                  <dbl>      <dbl>     <dbl> <dbl>
##  1 HISTO_DU.Contig190.eannot.1260        0.742      0.950       261  7.39
##  2 HISTO_BP.Contig457.eannot.1663        0.793      0.979       141  7.41
##  3 HISTO_GY.Contig460.eannot.1766        0.741      0.926        27  6.24
##  4 HISTO_DM.Contig933.eannot.1584        0.805      0.981       132  8.64
##  5 HISTO_DU.Contig204-snap.2.fina        0.807      0.975       102  7.40
##  6 HISTO_JG.Contig206.eannot.1494        0.789      0.950         9  6.41
##  7 HISTO_ZE.Contig149-snap.30.fin        0.800      0.958       102  3.95
##  8 HISTO_DM.Contig933.eannot.1625        0.826      0.981       102  6.10
##  9 HISTO_LG.Contig392.eannot.1763        0.820      0.975        60  7.71
## 10 HISTO_ZL.Contig1161c.eannot.15        0.758      0.911       231  7.84
## 11 HISTO_LAF.Contig3-snap.1.final        0.840      0.975        45 NA   
## 12 HISTO_ZL.Contig1161a.Fgenesh_h        0.854      0.987        24  8.09
## 13 HISTO_KF.Contig601.eannot.1321        0.847      0.973        12  3.16
## 14 HISTO_ZL.Contig1161d.eannot.14        0.776      0.902        27  8.35
## 15 HISTO_ZT.Contig1089.eannot.164        0.840      0.958       105  7.87
## 16 HISTO_ZT.Contig1089.Fgenesh_hi        0.819      0.933       330  6.88
## 17 HISTO_ZL.Contig1131.Fgenesh_hi        0.814      0.924         9  3.00
## 18 HISTO_LG.Contig392.eannot.1774        0.834      0.937        66  5.63
## 19 HISTO_AL.Contig317.Fgenesh_Asp        0.852      0.950        54 NA   
## 20 HISTO_ZT.Contig1089.eannot.154        0.769      0.866        12  6.21
## # ... with 154 more rows
…
