Start codon context for Neurospora crassa
…
Summary

This presents the analysis of Neurospora start codon usage and context. This uses the N. crassa translation estimates from Yu 2015.

Load Packages

Here we go

Expression: RNA abundance and ribosome-protected-fragments

Load expression data

## # A tibble: 9,722 x 8
##    Gene       WT1A   WT1B   WT2A   WT2B   HS1A   HS1B    RPF
##    <chr>     <dbl>  <dbl>  <dbl>  <dbl>  <dbl>  <dbl>  <dbl>
##  1 NCU06110 44987. 48332. 30355. 29159  28086. 30914. 35305.
##  2 NCU09345 39472. 41967. 30206. 31589. 32871. 32557. 34777.
##  3 NCU01528 19089. 18529. 22677  23985. 19573. 19484. 20556.
##  4 NCU02003 16107. 16344. 19838. 19027. 20928. 22821. 19178.
##  5 NCU16635 15646. 14783. 11187. 14863. 16376. 10478. 13889.
##  6 NCU10042 12865. 12418. 11894. 12734  12980. 10153. 12174.
##  7 NCU05495  7567.  7515. 10594. 11068   5313.  4177.  7706.
##  8 NCU02193  5046.  5109.  8775. 10355.  4738.  9384.  7234.
##  9 NCU04276  4626.  4366.  7922.  7225.  7064.  8340.  6590.
## 10 NCU08332  6563.  6427.  6318.  6337.  5620.  6361.  6271.
## # ... with 9,712 more rows
…
Ribosome occupancy mostly tracks RNA abundance

ATG Context

Load context data

## # A tibble: 9,722 x 7
##    Gene   aATG.context   aATG.pos d1.context  d1.posTSS d1.posATG d1.frame
##    <chr>  <chr>             <int> <chr>           <int>     <int>    <int>
##  1 NCU00 ACCATCATCGCGA      798 AGCCTTTCCG       819        21        0
##  2 NCU00 GCTTTTGGTGTCA      206 CCTTTACGCT       324       118        1
##  3 NCU00 ATCGCACTTTCAA      365 AAGACGACCG       522       157        1
##  4 NCU00 TCGATAGAAGATA     1382 AGTCCGACCC      1485       103        1
##  5 NCU00 GACCGATTTAGCA      713 GGGCCGCCAG       780        67        1
##  6 NCU00 CCACCGCCCACCA      558 AGGATTCCAA       748       190        1
##  7 NCU00 CAAATACTCACCA        1 GAGTGGAAGA       163       162        0
##  8 NCU00 TTTCTGCCCAACA     1457 GGCGTGAGCA      1680       223        1
##  9 NCU00 GTGGACACCGGCA        1 ATCGAAGCGC        96        95        2
## 10 NCU00 ATGGTGGTCAAGA        1 AAAGTGCTCA       118       117        0
## # ... with 9,712 more rows
…
Using the sequence logo, details on https://en.wikipedia.org/wiki/Sequence_logo

Information content in bits of highly-translated consensus (excluding 6 bits from ATG), narrow is 3.02, of wide is 4.51.

Calculate scores of aATG, dATG, uATG against Kozak consensus

We calculate scores using Biostrings::PWMscoreStartingAt.

The best description I could find of this method is: https://support.bioconductor.org/p/61520/

It is just the sum of the matrix product of the PWM with the sequence.

Write scores to file scores_kozak_Nc.txt.

## # A tibble: 9,722 x 4
##    Gene     aATG.scorekn d1.scorekn   d1vsan
##    <chr>           <dbl>      <dbl>    <dbl>
##  1 NCU00003        0.887      0.915  0.0279 
##  2 NCU00004        0.749      0.830  0.0814 
##  3 NCU00005        0.827      0.886  0.0589 
##  4 NCU00006        0.780      0.895  0.115  
##  5 NCU00007        0.844      0.864  0.0202 
##  6 NCU00008        0.972      0.933 -0.0393 
##  7 NCU00009        0.973      0.824 -0.149  
##  8 NCU00010        0.989      0.888 -0.101  
##  9 NCU00011        0.835      0.844  0.00829
## 10 NCU00013        0.978      0.978  0      
## # ... with 9,712 more rows
…
Red: high dATG vs aATG Kozak score. Blue: highly translated. Purple: both.

No correlation between dATG and aATG score

R = -0.041

Genes with unusual dATG vs aATG narrow score

Those genes are in this list:

## # A tibble: 400 x 3
##    Gene     aATG.scorekn d1.scorekn
##    <chr>           <dbl>      <dbl>
##  1 NCU05040        0.694      1    
##  2 NCU05555        0.693      0.989
##  3 NCU02127        0.687      0.973
##  4 NCU07312        0.681      0.964
##  5 NCU12086        0.675      0.957
##  6 NCU02616        0.666      0.945
##  7 NCU01333        0.708      0.983
##  8 NCU03699        0.665      0.935
##  9 NCU05306        0.733      0.999
## 10 NCU06558        0.719      0.982
## # ... with 390 more rows
…
Genes with unusual dATG vs aATG narrow score AND predicted mito loc

Those genes are in this list:

## # A tibble: 61 x 8
##    Gene     aATG.scorekn d1.scorekn d1.frame d1.posATG    WT   Opt    RPF
##    <chr>           <dbl>      <dbl>    <int>     <int> <dbl> <dbl>  <dbl>
##  1 NCU05040        0.694      1            0       141   4.7   2.6   3.65
##  2 NCU02127        0.687      0.973        0        45  10    11.9  11.0 
##  3 NCU08568        0.748      1            0       162  46.7 103.   74.8 
##  4 NCU03605        0.752      1            0       282  43.9  37.9  40.9 
##  5 NCU10044        0.696      0.938        0        78  23.7  36.7  30.2 
##  6 NCU07836        0.703      0.945        0        21   2.4   1.6   2   
##  7 NCU06615        0.768      1            0       153  20.3  30.7  25.5 
##  8 NCU08925        0.700      0.930        0       177   7.2   9.6   8.4 
##  9 NCU00081        0.786      0.999        0        84   4     1.8   2.9 
## 10 NCU01307        0.771      0.983        0       177  19.5  70    44.8 
## 11 NCU03859        0.674      0.886        0        33 140.  112.  126.  
## 12 NCU07268        0.666      0.875        0       135   0     0     0   
## 13 NCU01784        0.720      0.925        0       183  15.8  17.5  16.6 
## 14 NCU07528        0.774      0.978        2        29  37.6  35.9  36.8 
## 15 NCU03054        0.662      0.864        2       107  20.4  16.1  18.2 
## 16 NCU10285        0.724      0.925        1        73   0.6   0     0.3 
## 17 NCU03793        0.755      0.952        0       129  22.9  15.1  19   
## 18 NCU08195        0.786      0.982        0       282 257.  148.  202.  
## 19 NCU00405        0.781      0.977        0       207 543.  324   434.  
## 20 NCU00742        0.804      0.999        0       375  63    74.2  68.6 
## 21 NCU11195        0.747      0.938        0        51  45.6  49.1  47.4 
## 22 NCU01141        0.775      0.961        2        23   8.9   9.3   9.1 
## 23 NCU00847        0.793      0.977        0       123  54.7  64.9  59.8 
## 24 NCU03696        0.794      0.977        0       183  10.6  24.9  17.8 
## 25 NCU00950        0.758      0.940        0        36   6.6   9.7   8.15
## 26 NCU03339        0.808      0.990        0       105 353.  223.  288.  
## # ... with 35 more rows
…
