Start codon context for Saccharomyces cerevisiae
…
Summary

This presents the renewed analysis of Saccharomyces start codon usage and context. This uses the S. cerevisiae S288C expression and translation estimates from David Weinberg et al 2017.

This was started in Aug 2018, updated through Oct 2018, and used as a template for the analyses in other fungi.

Load Packages

Here we go

Expression: RNA abundance and ribosome-protected-fragments

Load expression data

## # A tibble: 5,293 x 3
##    Gene       RNA    RPF
##    <chr>    <dbl>  <dbl>
##  1 YLR044C 19774. 23902.
##  2 YKL060C 15021. 18447.
##  3 YOL086C 11283. 16251.
##  4 YAL038W 11070. 15983.
##  5 YJL189W  7910. 15708.
##  6 YLR110C  8564. 15388.
##  7 YKL152C 11359. 15019.
##  8 YCR012W 10869. 14240.
##  9 YDR050C  6892. 10133.
## 10 YLR109W  5110. 10071 
## # ... with 5,283 more rows
…
ATG Context

Load context data

## # A tibble: 6,571 x 19
##    Gene  aATG.context aATG.pos d1.context d1.posTSS d1.posATG d1.frame
##    <chr> <chr>           <dbl> <chr>          <dbl>     <dbl>    <dbl>
##  1 YAL0 GCCACAAGAAA        1 GTTCGTGCT       153       152        2
##  2 YAL0 ATTACACCTAG        1 gaATGGAGC        11        10        1
##  3 YAL0 TATACACACAT       51 AGAATTCTC       200       149        2
##  4 YAL0 TTCACCACCCA        1 ATACCGTCT        47        46        1
##  5 YAL0 ATAACAGATAA       63 CTCACTTTG       124        61        1
##  6 YAL0 TAAAGGAAAAC       76 CATCTTCCA       161        85        1
##  7 YAL0 AATAGGTGTAA       98 TTGGCTTTT       116        18        0
##  8 YAL0 ATAAAGGAGGT        1 AGAGCATAG        23        22        1
##  9 YAL0 AGACCGATCTT       42 ATGCTACCC        54        12        0
## 10 YAL0 AGACAAGTAAG        3 GTGGTCGTG       106       103        1
## # ... with 6,561 more rows, and 12 more variables: d2.context <chr>,
## #   d2.posTSS <dbl>, d2.posATG <dbl>, d2.frame <dbl>, u1.context <chr>,
## #   u1.posTSS <dbl>, u1.posATG <dbl>, u1.frame <dbl>, u2.context <chr>,
## #   u2.posTSS <dbl>, u2.posATG <dbl>, u2.frame <dbl>
…
Calculate scores of aATG, dATG, uATG against Kozak consensus

We calculate scores using Biostrings::PWMscoreStartingAt.

The best description I could find of this method is: https://support.bioconductor.org/p/61520/

It is just the sum of the matrix product of the PWM with the sequence.

Write scores to file scores_kozak_Sc.txt.

## # A tibble: 6,571 x 6
##    Gene    aATG.scorekn d1.scorekn u1.scorekn  d1vsan u1vsan
##    <chr>          <dbl>      <dbl>      <dbl>   <dbl>  <dbl>
##  1 YAL001C        1.000      0.798         NA -0.202      NA
##  2 YAL002W        0.895      0.976         NA  0.0814     NA
##  3 YAL003W        0.951      0.832         NA -0.119      NA
##  4 YAL004W        0.878      0.833         NA -0.0459     NA
##  5 YAL005C        0.920      0.805         NA -0.115      NA
##  6 YAL007C        0.929      0.875         NA -0.0545     NA
##  7 YAL008W        0.967      0.920         NA -0.0466     NA
##  8 YAL009W        0.809      0.797         NA -0.0121     NA
##  9 YAL010C        0.801      0.826         NA  0.0252     NA
## 10 YAL011W        0.928      0.850         NA -0.0776     NA
## # ... with 6,561 more rows
…
Genes with unusual dATG vs aATG narrow score

Those genes are in this list:

## # A tibble: 300 x 3
##    Gene      aATG.scorekn d1.scorekn
##    <chr>            <dbl>      <dbl>
##  1 YLR082C          0.744      1.000
##  2 YPL096C-A        0.718      0.969
##  3 YER156C          0.760      1.000
##  4 YDR514C          0.744      0.976
##  5 YOR218C          0.705      0.935
##  6 YOR105W          0.705      0.929
##  7 YPR002C-A        0.752      0.976
##  8 YJL164C          0.755      0.976
##  9 YGR231C          0.758      0.975
## 10 YCR007C          0.760      0.975
## # ... with 290 more rows
…
HNT1 / YDL125C, Adenosine monophosphoramidase involved in nucleotide metabolism, localizes to nucleus and cytoplasm

SUI1 / YNL244C eIF1, enforces accurate ATG selection and has conserved poor start codon context.

RPL39 / YJL189W, Ribosomal protein L39

There is no clear pattern in these.

dATG in frame with ATG - CHECK against dual-localized papers!

Files with high difference in narrow score, filtered for reasonable amounts of RNA, in frame.

## # A tibble: 35 x 3
##    Gene    aATG.scorekn d1.scorekn
##    <chr>          <dbl>      <dbl>
##  1 YER156C        0.760      1.000
##  2 YDR513W        0.798      1.000
##  3 YLR357W        0.712      0.904
##  4 YHR070W        0.751      0.929
##  5 YDL125C        0.825      1.000
##  6 YGR094W        0.794      0.967
##  7 YDR248C        0.752      0.923
##  8 YDL122W        0.744      0.913
##  9 YLR389C        0.754      0.920
## 10 YLR403W        0.809      0.969
## # ... with 25 more rows
…
YDR248C, Putative gluconokinase localized to cytoplasm and vacuole

VAS1 / YGR094W, Valyl tRNA synthase, localized to cytoplasm and mitochondria

ERB1 / YMR049C, Eukaryotic Ribosome Biogenesis protein, nucleolar.

SFP1 / YLR403W, transcription regulator of ribosomal biogenesis genes, nuclear/cyto localization

YNL247W, Cysteinyl-tRNA synthetase, localized to cytoplasm and mitochondria

dATG out of frame with ATG

Files with high difference in narrow score, filtered for reasonable amounts of RNA, out of frame.

## # A tibble: 55 x 3
##    Gene    aATG.scorekn d1.scorekn
##    <chr>          <dbl>      <dbl>
##  1 YJL164C        0.755      0.976
##  2 YGR231C        0.758      0.975
##  3 YBL079W        0.759      0.969
##  4 YEL061C        0.792      1.000
##  5 YNL244C        0.750      0.946
##  6 YLR258W        0.791      0.976
##  7 YMR012W        0.795      0.975
##  8 YLR247C        0.824      1.000
##  9 YHL039W        0.760      0.936
## 10 YNL258C        0.827      1.000
## # ... with 45 more rows
…
