Start codon context for Schizosaccharomyces pombe
…
Summary

This presents the analysis of Schizosaccharomyces start codon usage and context. This uses the S. pombe 972h- translation estimates from Duncan and Mata 2017.

Load Packages

Here we go

Expression: RNA abundance and ribosome-protected-fragments

Load expression data

## # A tibble: 5,118 x 3
##    Gene            RPF RPF_noN
##    <chr>         <dbl>   <dbl>
##  1 SPBC32F12.11 24656.   7815.
##  2 SPCC1223.02  21318.   9851.
##  3 SPAC26F1.06  16345.   4028.
##  4 SPBC26H8.01  14225.   7880.
##  5 SPBC1815.01  13361.   1813.
##  6 SPAC27E2.11c 11624.  20502.
##  7 SPCC13B11.01 11424.   4302.
##  8 SPBC14F5.04c 10075.   1878.
##  9 SPBC19C2.07   9919.   4587.
## 10 SPAC1F8.07c   9341.   2330.
## # ... with 5,108 more rows
…
Ribosome occupancy mostly tracks RNA abundance

ATG Context

Load context data

## # A tibble: 5,118 x 7
##    Gene   aATG.context   aATG.pos d1.context  d1.posTSS d1.posATG d1.frame
##    <chr>  <chr>             <int> <chr>           <int>     <int>    <int>
##  1 SPAC2 ATTTCTACTGCCA        1 AGATATCGCC        60        59        2
##  2 SPAC9 ACGATTATAAGGA      159 TTTAGTCCGA       266       107        2
##  3 SPAC1 CAGTTTTTAGAAA       61 CAGCAACTGC        85        24        0
##  4 SPAC1 AAAAAAAAAAATA      339 GTAATAAGAG       376        37        1
##  5 SPAC1 CTTAGCTATAAAA      326 ACCGTCGAAG       371        45        0
##  6 SPAC1 TTTCAATCCAACA      140 CCATTCCTCC       336       196        1
##  7 SPAC1 AACTAATTCAATA      199 CTGCAGAGTG       236        37        1
##  8 SPAC1 AAGTAGGAAAGAA       72 GCAAAAAACG       176       104        2
##  9 SPAC1 TTTCCATCCAATA        1 AACAGCCCGA        29        28        1
## 10 SPAC1 TCTTGTTAAATCA      315 TTAGAAATAG       364        49        1
## # ... with 5,108 more rows
…
Using the sequence logo, details on https://en.wikipedia.org/wiki/Sequence_logo

Information content in bits of highly-translated consensus (excluding 6 bits from ATG), narrow is 2.46, of wide is 3.64.

Calculate scores of aATG, dATG, uATG against Kozak consensus

We calculate scores using Biostrings::PWMscoreStartingAt.

The best description I could find of this method is: https://support.bioconductor.org/p/61520/

It is just the sum of the matrix product of the PWM with the sequence.

Write scores to file scores_kozak_Sp.txt.

## # A tibble: 5,118 x 4
##    Gene         aATG.scorekn d1.scorekn   d1vsan
##    <chr>               <dbl>      <dbl>    <dbl>
##  1 SPAC212.11          0.814      0.726 -0.0880 
##  2 SPAC977.18          0.876      0.805 -0.0707 
##  3 SPAC13G6.05c        0.929      0.761 -0.168  
##  4 SPAC1002.16c        0.938      0.862 -0.0767 
##  5 SPAC1002.17c        0.942      0.919 -0.0229 
##  6 SPAC1002.18         0.958      0.801 -0.157  
##  7 SPAC1002.19         0.954      0.820 -0.134  
##  8 SPAC1399.05c        0.907      0.886 -0.0214 
##  9 SPAC1399.04c        0.941      0.851 -0.0896 
## 10 SPAC1399.03         0.906      0.897 -0.00888
## # ... with 5,108 more rows
…
Red: high dATG vs aATG Kozak score. Blue: highly translated.

(Purple: both. None of the red genes are highly translated.)

Genes with unusual dATG vs aATG narrow score

Those genes are in this list:

## # A tibble: 256 x 3
##    Gene          aATG.scorekn d1.scorekn
##    <chr>                <dbl>      <dbl>
##  1 SPAC222.04c          0.717      1    
##  2 SPAC26F1.05          0.708      0.984
##  3 SPCC1620.12c         0.735      1    
##  4 SPBC9B6.11c          0.698      0.950
##  5 SPAC12B10.01c        0.743      0.994
##  6 SPAC1B2.06           0.741      0.987
##  7 SPAC7D4.13c          0.714      0.958
##  8 SPAC1F5.07c          0.744      0.987
##  9 SPBC29A3.14c         0.711      0.954
## 10 SPCC31H12.08c        0.730      0.971
## # ... with 246 more rows
SPAC222.04c/Ies6, Ino80 chromatin remodeling complex subunit

SPAC26F1.05/Mug106, meiotically upregulate, short, no known orthologs.

SPCC1620.12c GTPase activating protein, distand MDR1/GYP2 homolog

SPBC9B6.11c CCR4/nocturin family endoribonuclease, NGL2/3 homolog

SPAC12B10.01c HECT-type ubiquitin-protein ligase E3, UFD4 homolog

SPAC1B2.06, short, no known orthologs

Some of these are decently translated (top 25%)

## # A tibble: 24 x 3
##    Gene          aATG.scorekn d1.scorekn
##    <chr>                <dbl>      <dbl>
##  1 SPBC1198.08          0.705      0.942
##  2 SPBC337.16           0.753      0.965
##  3 SPAC1565.08          0.718      0.927
##  4 SPCC1672.02c         0.753      0.946
##  5 SPBC25H2.16c         0.820      1    
##  6 SPBC2G2.12           0.705      0.880
##  7 SPAPB1A10.10c        0.786      0.956
##  8 SPBC1677.03c         0.743      0.909
##  9 SPBC146.13c          0.726      0.888
## 10 SPAC57A7.12          0.741      0.902
## # ... with 14 more rows
…
SPAC1B3.04c mitochondrial elongation factor GTPase Guf1

SPAC6C3.04 citrate synthase Cit1. Scer has two paralogs, Cit1 (mito) and Cit2 (cyto/peroxisomal). But here the 2nd ATG is right next to the first ATG so thats probably just an annotaion off by 1.

SPBC15C4.02 ABC1 kinase family protein, implicated in mito activity, Mcp2 homolog

Histidine tRNA Ligase, Hurrah!

Several mitochondrial ribosomal proteins, check these.

Mostly the 2nd ATG is not in frame though. Restricting to frame gives only Rex2 and HisRS.

less strong biases, but in frame dATG

## # A tibble: 94 x 6
##    Gene          aATG.scorekn d1.scorekn d1.posATG     RPF RPF_noN
##    <chr>                <dbl>      <dbl>     <int>   <dbl>   <dbl>
##  1 SPBC1347.07          0.785      1           216   18.1    15.7 
##  2 SPBC16E9.06c         0.764      0.959        24   29.2    25.0 
##  3 SPBC146.12           0.707      0.895        39   42.7    52.8 
##  4 SPBC2G2.12           0.705      0.880        75  170.     60.8 
##  5 SPAC6C3.04           0.753      0.910         3  273.    807.  
##  6 SPBC2G2.08           0.753      0.876         9   33.9     7.15
##  7 SPBC21C3.04c         0.748      0.862         3   95.4   174.  
##  8 SPBC609.02           0.770      0.883        84    1.75    3.28
##  9 SPAC57A10.04         0.800      0.912        18    0.5     1.15
## 10 SPAC3H1.10           0.707      0.816        42   11.1    14.2 
## 11 SPAC4F8.02c          0.887      0.994        60   38.9    37.2 
## 12 SPAC23C11.17         0.773      0.864        36  102.    177.  
## 13 SPBC887.14c          0.759      0.844        60   15.1    13.9 
## 14 SPAC24C9.09          0.786      0.868         3    9.65   16.2 
## 15 SPAC26F1.14c         0.846      0.923       108   28.2   418.  
## 16 SPBC1861.05          0.771      0.840        12   13.9   309.  
## 17 SPBC21D10.11c        0.920      0.987         9   87.4   193.  
## 18 SPBC2G2.04c          0.877      0.942       105 1531.   2415.  
## 19 SPBP8B7.10c          0.830      0.889        21   23.8    16.9 
## 20 SPCC1682.01          0.741      0.799        54  320.    666.  
## # ... with 74 more rows
…
