UTR lengths in Cryptococcus neoformans
…
H99 second

## # A tibble: 6,795 x 19
##    Gene  aATG.context aATG.pos d1.context d1.posTSS d1.posATG d1.frame
##    <chr> <chr>           <dbl> <chr>          <dbl>     <dbl>    <dbl>
##  1 CNAG TACTTACGCGA       70 AAATTCACT       100        30        0
##  2 CNAG GAACTTCGATC       52 TCTCCCGCC       114        62        2
##  3 CNAG TGTCTCCTTGA      104 ACTTACGCC       189        85        1
##  4 CNAG CACATACGTAA      214 CCGAACGGC       256        42        0
##  5 CNAG GACTATACAAA       55 GGAGGTGGG       163       108        0
##  6 CNAG AACCATACAAA       99 CAAAGCCAT       259       160        1
##  7 CNAG ACCGTGCACAC       75 GTATTCGGA       105        30        0
##  8 CNAG GTTTTCAACAG       73 CCCATCAGA       380       307        1
##  9 CNAG GTACTATTGAA      206 GAGGCTCCG       513       307        1
## 10 CNAG TACAAGCTTGA       90 GGCCGCCTT       151        61        1
## # ... with 6,785 more rows, and 12 more variables: d2.context <chr>,
## #   d2.posTSS <dbl>, d2.posATG <dbl>, d2.frame <dbl>, u1.context <chr>,
## #   u1.posTSS <dbl>, u1.posATG <dbl>, u1.frame <dbl>, u2.context <chr>,
## #   u2.posTSS <dbl>, u2.posATG <dbl>, u2.frame <dbl>
…
